       y	       x
--------	--------
   0.000	-64.000
  10.141	-64.000
  33.642	-64.000
  52.607	-51.222
  64.961	-31.156
  69.838	-10.160
  54.610	-10.160
  51.392	-37.302
  47.557	-46.306
  37.233	-50.290
 -37.233	-50.290
 -47.557	-46.306
 -51.392	-37.302
 -54.610	-10.160
 -69.838	-10.160
 -64.961	-31.156
 -52.607	-51.222
 -33.642	-64.000
 -10.141	-64.000
   0.000	-64.000
